<?xml version="1.0" encoding="utf-8"?>
<!-- Generator: Adobe Illustrator 16.0.0, SVG Export Plug-In . SVG Version: 6.00 Build 0)  -->
<!DOCTYPE svg PUBLIC "-//W3C//DTD SVG 1.1//EN" "http://www.w3.org/Graphics/SVG/1.1/DTD/svg11.dtd">
<svg version="1.1" id="Layer_1" xmlns="http://www.w3.org/2000/svg" xmlns:xlink="http://www.w3.org/1999/xlink" x="0px" y="0px"
	 width="841.89px" height="595.28px" viewBox="0 0 841.89 595.28" enable-background="new 0 0 841.89 595.28" xml:space="preserve">
<g>
	<path fill="none" stroke="#B1B3B6" stroke-width="22.008" stroke-miterlimit="10" d="M569.316,261.955
		c0,104.764-84.893,189.658-189.625,189.658c-104.73,0-189.625-84.895-189.625-189.658S274.961,72.281,379.691,72.281
		C484.424,72.281,569.316,157.191,569.316,261.955z"/>
	
		<line fill="none" stroke="#B1B3B6" stroke-width="23.5763" stroke-miterlimit="10" x1="513.518" y1="384.562" x2="651.822" y2="522.998"/>
</g>
</svg>
